{
  "$schema": "../../../../node_modules/@angular-devkit/schematics/collection-schema.json",
  "schematics": {
    "init": {
      "description": "A blank schematic.",
      "factory": "./init/index#init",
      "schema": "./init/schema.json"
    }
  }
}
